{
    "paging": {
        "pageIndex": 1,
        "pageSize": 100,
        "total": 11
    },
    "baseComponent": {
        "id": "AV2jU_7GQ8Jj1bznLejz",
        "key": "crown.paints:jenkins",
        "name": "crown.paints",
        "qualifier": "TRK",
        "measures": [
            {
                "metric": "duplicated_lines_density",
                "value": "4.7",
                "periods": [
                    {
                        "index": 1,
                        "value": "0.10000000000000053"
                    }
                ]
            },
            {
                "metric": "bugs",
                "value": "14",
                "periods": [
                    {
                        "index": 1,
                        "value": "-15"
                    }
                ]
            },
            {
                "metric": "alert_status",
                "value": "ERROR"
            },
            {
                "metric": "ncloc",
                "value": "41410",
                "periods": [
                    {
                        "index": 1,
                        "value": "489"
                    }
                ]
            },
            {
                "metric": "code_smells",
                "value": "705",
                "periods": [
                    {
                        "index": 1,
                        "value": "-14"
                    }
                ]
            },
            {
                "metric": "vulnerabilities",
                "value": "4",
                "periods": [
                    {
                        "index": 1,
                        "value": "0"
                    }
                ]
            }
        ]
    },
    "components": [
        {
            "id": "AV2jVBZUMm9nLOMqE7G2",
            "key": "crown.paints:jenkins:crown.paints:jenkins:25AF598D-51AC-47A4-94BA-E4D05DBCC240",
            "name": "301RedirectModule",
            "qualifier": "BRC",
            "path": "Libraries/301RedirectModule",
            "measures": [
                {
                    "metric": "duplicated_lines_density",
                    "value": "0.0",
                    "periods": [
                        {
                            "index": 1,
                            "value": "0.0"
                        }
                    ]
                },
                {
                    "metric": "bugs",
                    "value": "1",
                    "periods": [
                        {
                            "index": 1,
                            "value": "0"
                        }
                    ]
                },
                {
                    "metric": "ncloc",
                    "value": "330",
                    "periods": [
                        {
                            "index": 1,
                            "value": "0"
                        }
                    ]
                },
                {
                    "metric": "code_smells",
                    "value": "10",
                    "periods": [
                        {
                            "index": 1,
                            "value": "0"
                        }
                    ]
                },
                {
                    "metric": "vulnerabilities",
                    "value": "1",
                    "periods": [
                        {
                            "index": 1,
                            "value": "0"
                        }
                    ]
                }
            ]
        },
        {
            "id": "AV2jVBZVMm9nLOMqE7HA",
            "key": "crown.paints:jenkins:crown.paints:jenkins:618AD226-3C5B-4030-8E78-6DA8D055E7DA",
            "name": "Crown.Decorating.Domain",
            "qualifier": "BRC",
            "path": "Crown.Decorating.Domain",
            "measures": [
                {
                    "metric": "duplicated_lines_density",
                    "value": "8.6",
                    "periods": [
                        {
                            "index": 1,
                            "value": "-0.20000000000000107"
                        }
                    ]
                },
                {
                    "metric": "bugs",
                    "value": "2",
                    "periods": [
                        {
                            "index": 1,
                            "value": "0"
                        }
                    ]
                },
                {
                    "metric": "ncloc",
                    "value": "14295",
                    "periods": [
                        {
                            "index": 1,
                            "value": "267"
                        }
                    ]
                },
                {
                    "metric": "code_smells",
                    "value": "241",
                    "periods": [
                        {
                            "index": 1,
                            "value": "7"
                        }
                    ]
                },
                {
                    "metric": "vulnerabilities",
                    "value": "0",
                    "periods": [
                        {
                            "index": 1,
                            "value": "0"
                        }
                    ]
                }
            ]
        },
        {
            "id": "AV2jVBZ2Mm9nLOMqE7K-",
            "key": "crown.paints:jenkins:crown.paints:jenkins:B36E856A-52A5-4CFB-B96B-4658285A86FE",
            "name": "Crown.Paints.Domain",
            "qualifier": "BRC",
            "path": "Crown.Paints.Domain",
            "measures": [
                {
                    "metric": "duplicated_lines_density",
                    "value": "4.7",
                    "periods": [
                        {
                            "index": 1,
                            "value": "0.20000000000000018"
                        }
                    ]
                },
                {
                    "metric": "bugs",
                    "value": "6",
                    "periods": [
                        {
                            "index": 1,
                            "value": "-15"
                        }
                    ]
                },
                {
                    "metric": "ncloc",
                    "value": "13815",
                    "periods": [
                        {
                            "index": 1,
                            "value": "82"
                        }
                    ]
                },
                {
                    "metric": "code_smells",
                    "value": "285",
                    "periods": [
                        {
                            "index": 1,
                            "value": "-12"
                        }
                    ]
                },
                {
                    "metric": "vulnerabilities",
                    "value": "1",
                    "periods": [
                        {
                            "index": 1,
                            "value": "0"
                        }
                    ]
                }
            ]
        },
        {
            "id": "AV2jVBabMm9nLOMqE7PW",
            "key": "crown.paints:jenkins:crown.paints:jenkins:24AF4B06-FC90-49E0-82BE-440C07DA4245",
            "name": "Crown.PaypalBasketOrders",
            "qualifier": "BRC",
            "path": "Crown.PaypalBasketOrders",
            "measures": [
                {
                    "metric": "duplicated_lines_density",
                    "value": "0.0",
                    "periods": [
                        {
                            "index": 1,
                            "value": "0.0"
                        }
                    ]
                },
                {
                    "metric": "bugs",
                    "value": "0",
                    "periods": [
                        {
                            "index": 1,
                            "value": "0"
                        }
                    ]
                },
                {
                    "metric": "ncloc",
                    "value": "176",
                    "periods": [
                        {
                            "index": 1,
                            "value": "0"
                        }
                    ]
                },
                {
                    "metric": "code_smells",
                    "value": "8",
                    "periods": [
                        {
                            "index": 1,
                            "value": "0"
                        }
                    ]
                },
                {
                    "metric": "vulnerabilities",
                    "value": "0",
                    "periods": [
                        {
                            "index": 1,
                            "value": "0"
                        }
                    ]
                }
            ]
        },
        {
            "id": "AV2jVBabMm9nLOMqE7Pb",
            "key": "crown.paints:jenkins:crown.paints:jenkins:D5365137-FC72-439A-965F-A84B42EAA574",
            "name": "Crown.Pipelines",
            "qualifier": "BRC",
            "path": "Crown.Pipelines",
            "measures": [
                {
                    "metric": "duplicated_lines_density",
                    "value": "0.0",
                    "periods": [
                        {
                            "index": 1,
                            "value": "0.0"
                        }
                    ]
                },
                {
                    "metric": "bugs",
                    "value": "0",
                    "periods": [
                        {
                            "index": 1,
                            "value": "0"
                        }
                    ]
                },
                {
                    "metric": "ncloc",
                    "value": "102",
                    "periods": [
                        {
                            "index": 1,
                            "value": "19"
                        }
                    ]
                },
                {
                    "metric": "code_smells",
                    "value": "6",
                    "periods": [
                        {
                            "index": 1,
                            "value": "1"
                        }
                    ]
                },
                {
                    "metric": "vulnerabilities",
                    "value": "0",
                    "periods": [
                        {
                            "index": 1,
                            "value": "0"
                        }
                    ]
                }
            ]
        },
        {
            "id": "AV2jVBadMm9nLOMqE7Pq",
            "key": "crown.paints:jenkins:crown.paints:jenkins:49C487AA-FAEC-4150-BD58-556DD0BD3FCB",
            "name": "Crown.Shared.Domain",
            "qualifier": "BRC",
            "path": "Crown.Shared.Domain",
            "measures": [
                {
                    "metric": "duplicated_lines_density",
                    "value": "4.1",
                    "periods": [
                        {
                            "index": 1,
                            "value": "-0.10000000000000053"
                        }
                    ]
                },
                {
                    "metric": "bugs",
                    "value": "0",
                    "periods": [
                        {
                            "index": 1,
                            "value": "0"
                        }
                    ]
                },
                {
                    "metric": "ncloc",
                    "value": "1048",
                    "periods": [
                        {
                            "index": 1,
                            "value": "27"
                        }
                    ]
                },
                {
                    "metric": "code_smells",
                    "value": "8",
                    "periods": [
                        {
                            "index": 1,
                            "value": "0"
                        }
                    ]
                },
                {
                    "metric": "vulnerabilities",
                    "value": "0",
                    "periods": [
                        {
                            "index": 1,
                            "value": "0"
                        }
                    ]
                }
            ]
        },
        {
            "id": "AV2jVBacMm9nLOMqE7Pi",
            "key": "crown.paints:jenkins:crown.paints:jenkins:7A4C3C51-B036-464E-921A-6330CB2251D2",
            "name": "Crown.Sitemap",
            "qualifier": "BRC",
            "path": "Crown.Sitemap",
            "measures": [
                {
                    "metric": "duplicated_lines_density",
                    "value": "0.0",
                    "periods": [
                        {
                            "index": 1,
                            "value": "0.0"
                        }
                    ]
                },
                {
                    "metric": "bugs",
                    "value": "1",
                    "periods": [
                        {
                            "index": 1,
                            "value": "0"
                        }
                    ]
                },
                {
                    "metric": "ncloc",
                    "value": "360",
                    "periods": [
                        {
                            "index": 1,
                            "value": "4"
                        }
                    ]
                },
                {
                    "metric": "code_smells",
                    "value": "17",
                    "periods": [
                        {
                            "index": 1,
                            "value": "0"
                        }
                    ]
                },
                {
                    "metric": "vulnerabilities",
                    "value": "0",
                    "periods": [
                        {
                            "index": 1,
                            "value": "0"
                        }
                    ]
                }
            ]
        },
        {
            "id": "AV2jXcC4Mm9nLOMqE7eO",
            "key": "crown.paints:jenkins:crown.paints:jenkins:580C658B-56B7-43CF-9C1E-764711A695ED",
            "name": "Crown.Tests",
            "qualifier": "BRC",
            "path": "Crown.Tests",
            "measures": [
                {
                    "metric": "bugs",
                    "value": "0",
                    "periods": [
                        {
                            "index": 1,
                            "value": "0"
                        }
                    ]
                },
                {
                    "metric": "code_smells",
                    "value": "0",
                    "periods": [
                        {
                            "index": 1,
                            "value": "0"
                        }
                    ]
                },
                {
                    "metric": "vulnerabilities",
                    "value": "0",
                    "periods": [
                        {
                            "index": 1,
                            "value": "0"
                        }
                    ]
                }
            ]
        },
        {
            "id": "AV2jXcC-Mm9nLOMqE7ef",
            "key": "crown.paints:jenkins:crown.paints:jenkins:39DE6706-D5CC-48F6-92CD-83F77CD003C4",
            "name": "Crown.Web",
            "qualifier": "BRC",
            "path": "Crown.Web",
            "measures": [
                {
                    "metric": "duplicated_lines_density",
                    "value": "2.2",
                    "periods": [
                        {
                            "index": 1,
                            "value": "1.2000000000000002"
                        }
                    ]
                },
                {
                    "metric": "bugs",
                    "value": "0",
                    "periods": [
                        {
                            "index": 1,
                            "value": "0"
                        }
                    ]
                },
                {
                    "metric": "ncloc",
                    "value": "4384",
                    "periods": [
                        {
                            "index": 1,
                            "value": "90"
                        }
                    ]
                },
                {
                    "metric": "code_smells",
                    "value": "53",
                    "periods": [
                        {
                            "index": 1,
                            "value": "-10"
                        }
                    ]
                },
                {
                    "metric": "vulnerabilities",
                    "value": "0",
                    "periods": [
                        {
                            "index": 1,
                            "value": "0"
                        }
                    ]
                }
            ]
        },
        {
            "id": "AV2jVBahMm9nLOMqE7QD",
            "key": "crown.paints:jenkins:crown.paints:jenkins:3735CF14-945D-4495-B26E-BDE599123C06",
            "name": "PayPal.SDK",
            "qualifier": "BRC",
            "path": "Libraries/PayPal.SDK",
            "measures": [
                {
                    "metric": "duplicated_lines_density",
                    "value": "1.5",
                    "periods": [
                        {
                            "index": 1,
                            "value": "0.0"
                        }
                    ]
                },
                {
                    "metric": "bugs",
                    "value": "3",
                    "periods": [
                        {
                            "index": 1,
                            "value": "0"
                        }
                    ]
                },
                {
                    "metric": "ncloc",
                    "value": "5947",
                    "periods": [
                        {
                            "index": 1,
                            "value": "0"
                        }
                    ]
                },
                {
                    "metric": "code_smells",
                    "value": "51",
                    "periods": [
                        {
                            "index": 1,
                            "value": "0"
                        }
                    ]
                },
                {
                    "metric": "vulnerabilities",
                    "value": "2",
                    "periods": [
                        {
                            "index": 1,
                            "value": "0"
                        }
                    ]
                }
            ]
        },
        {
            "id": "AV2jVBa3Mm9nLOMqE7Sm",
            "key": "crown.paints:jenkins:crown.paints:jenkins:9C870B1F-9794-4738-9BA3-1ED045C62636",
            "name": "PayPalMvc",
            "qualifier": "BRC",
            "path": "Libraries/PayPalMvc",
            "measures": [
                {
                    "metric": "duplicated_lines_density",
                    "value": "0.0",
                    "periods": [
                        {
                            "index": 1,
                            "value": "0.0"
                        }
                    ]
                },
                {
                    "metric": "bugs",
                    "value": "1",
                    "periods": [
                        {
                            "index": 1,
                            "value": "0"
                        }
                    ]
                },
                {
                    "metric": "ncloc",
                    "value": "953",
                    "periods": [
                        {
                            "index": 1,
                            "value": "0"
                        }
                    ]
                },
                {
                    "metric": "code_smells",
                    "value": "26",
                    "periods": [
                        {
                            "index": 1,
                            "value": "0"
                        }
                    ]
                },
                {
                    "metric": "vulnerabilities",
                    "value": "0",
                    "periods": [
                        {
                            "index": 1,
                            "value": "0"
                        }
                    ]
                }
            ]
        }
    ]
}