﻿[
  {
    "outputFile": "wwwroot/css/site.css",
    "inputFile": "wwwroot/css/site.scss"
  },
  {
    "outputFile": "wwwroot/css/variables.css",
    "inputFile": "wwwroot/css/variables.scss"
  },
  {
    "outputFile": "wwwroot/css/detailed.css",
    "inputFile": "wwwroot/css/detailed.scss"
  }
]